TriggerSummaryStep1                     4   0     DEBUG  +++ HLT_mu6Comb_L1MU6 ID#996392590
TriggerSummaryStep1                     4   0     DEBUG  +++ HLT_mu6_ivarmedium_L1MU6 ID#1012713062
TriggerSummaryStep1                     4   0     DEBUG  +++ HLT_mu20_ivar_L1MU6 ID#2083734526
TriggerSummaryStep1                     4   0     DEBUG  +++ HLT_mu6_L1MU6 ID#2560542253
TriggerSummaryStep1                     4   0     DEBUG  +++ HLT_mu26_ivarmedium_L1MU20 ID#3411723090
TriggerSummaryStep1                     4   0     DEBUG  +++ HLT_mu6fast_L1MU6 ID#3518031697
TriggerSummaryStep1                     4   0     DEBUG  +++ HLT_mu6_msonly_L1MU6 ID#3895421032
TriggerSummaryStep2                     4   0     DEBUG  +++ HLT_mu6Comb_L1MU6 ID#996392590
TriggerSummaryStep2                     4   0     DEBUG  +++ HLT_mu6_ivarmedium_L1MU6 ID#1012713062
TriggerSummaryStep2                     4   0     DEBUG  +++ HLT_mu20_ivar_L1MU6 ID#2083734526
TriggerSummaryStep2                     4   0     DEBUG  +++ HLT_mu6_L1MU6 ID#2560542253
TriggerSummaryStep2                     4   0     DEBUG  +++ HLT_mu26_ivarmedium_L1MU20 ID#3411723090
TriggerSummaryStep2                     4   0     DEBUG  +++ HLT_mu6_msonly_L1MU6 ID#3895421032
TriggerSummaryStep3                     4   0     DEBUG  +++ HLT_mu20_ivar_L1MU6 ID#2083734526
TriggerSummaryStep1                     6   0     DEBUG  +++ HLT_mu6Comb_L1MU6 ID#996392590
TriggerSummaryStep1                     6   0     DEBUG  +++ HLT_mu6_ivarmedium_L1MU6 ID#1012713062
TriggerSummaryStep1                     6   0     DEBUG  +++ HLT_mu6noL1_L1MU6 ID#1631468602
TriggerSummaryStep1                     6   0     DEBUG  +++ HLT_mu6_mu4_L12MU4 ID#1713982776
TriggerSummaryStep1                     6   0     DEBUG  +++ HLT_2mu6_L12MU6 ID#1747073535
TriggerSummaryStep1                     6   0     DEBUG  +++ HLT_2mu6Comb_L12MU6 ID#2046267508
TriggerSummaryStep1                     6   0     DEBUG  +++ HLT_mu6_L1MU6 ID#2560542253
TriggerSummaryStep1                     6   0     DEBUG  +++ HLT_mu6fast_L1MU6 ID#3518031697
TriggerSummaryStep1                     6   0     DEBUG  +++ HLT_mu6_msonly_L1MU6 ID#3895421032
TriggerSummaryStep2                     6   0     DEBUG  +++ HLT_mu6Comb_L1MU6 ID#996392590
TriggerSummaryStep2                     6   0     DEBUG  +++ HLT_mu6_ivarmedium_L1MU6 ID#1012713062
TriggerSummaryStep2                     6   0     DEBUG  +++ HLT_mu6_mu4_L12MU4 ID#1713982776
TriggerSummaryStep2                     6   0     DEBUG  +++ HLT_2mu6_L12MU6 ID#1747073535
TriggerSummaryStep2                     6   0     DEBUG  +++ HLT_2mu6Comb_L12MU6 ID#2046267508
TriggerSummaryStep2                     6   0     DEBUG  +++ HLT_mu6_L1MU6 ID#2560542253
TriggerSummaryStep2                     6   0     DEBUG  +++ HLT_mu6_msonly_L1MU6 ID#3895421032
TriggerSummaryStep3                     6   0     DEBUG  +++ HLT_mu6_ivarmedium_L1MU6 ID#1012713062
TriggerSummaryStep3                     6   0     DEBUG  +++ HLT_mu6_mu4_L12MU4 ID#1713982776
TriggerSummaryStep3                     6   0     DEBUG  +++ HLT_2mu6_L12MU6 ID#1747073535
TriggerSummaryStep3                     6   0     DEBUG  +++ HLT_mu6_L1MU6 ID#2560542253
TriggerSummaryStep3                     6   0     DEBUG  +++ HLT_mu6_msonly_L1MU6 ID#3895421032
TriggerSummaryStep4                     6   0     DEBUG  +++ HLT_mu6_ivarmedium_L1MU6 ID#1012713062
TriggerSummaryStep4                     6   0     DEBUG  +++ HLT_mu6_mu4_L12MU4 ID#1713982776
TriggerSummaryStep4                     6   0     DEBUG  +++ HLT_mu6_L1MU6 ID#2560542253
TriggerSummaryStep5                     6   0     DEBUG  +++ HLT_mu6_ivarmedium_L1MU6 ID#1012713062
TriggerSummaryStep1                     7   0     DEBUG  +++ HLT_mu6noL1_L1MU6 ID#1631468602
TriggerSummaryStep1                     8   0     DEBUG  +++ HLT_mu6noL1_L1MU6 ID#1631468602
TrigSignatureMoniMT                                INFO HLT_2mu14_L12MU10             10        10        0         0         0         0         0         0         
TrigSignatureMoniMT                                INFO HLT_2mu14_L12MU10 decisions                       0         0         0         0         0         
TrigSignatureMoniMT                                INFO HLT_2mu6Comb_L12MU6           10        10        1         1         0         0         0         1         
TrigSignatureMoniMT                                INFO HLT_2mu6Comb_L12MU6 decisions                     4         4         0         0         0         
TrigSignatureMoniMT                                INFO HLT_2mu6_L12MU6               10        10        1         1         1         0         0         0         
TrigSignatureMoniMT                                INFO HLT_2mu6_L12MU6 decisions                         4         4         4         0         0         
TrigSignatureMoniMT                                INFO HLT_3mu6_L13MU6               10        10        0         0         0         0         0         0         
TrigSignatureMoniMT                                INFO HLT_3mu6_L13MU6 decisions                         0         0         0         0         0         
TrigSignatureMoniMT                                INFO HLT_3mu6_msonly_L13MU6        10        10        0         0         0         0         0         0         
TrigSignatureMoniMT                                INFO HLT_3mu6_msonly_L13MU6 decisions                    0         0         0         0         0         
TrigSignatureMoniMT                                INFO HLT_4mu4_L14MU4               10        10        0         0         0         0         0         0         
TrigSignatureMoniMT                                INFO HLT_4mu4_L14MU4 decisions                         0         0         0         0         0         
TrigSignatureMoniMT                                INFO HLT_mu20_ivar_L1MU6           10        10        1         1         1         0         0         1         
TrigSignatureMoniMT                                INFO HLT_mu20_ivar_L1MU6 decisions                     1         1         1         0         0         
TrigSignatureMoniMT                                INFO HLT_mu26_ivarmedium_L1MU20    10        10        1         1         0         0         0         0         
TrigSignatureMoniMT                                INFO HLT_mu26_ivarmedium_L1MU20 decisions                    1         1         0         0         0         
TrigSignatureMoniMT                                INFO HLT_mu50_L1MU20               10        10        0         0         0         0         0         0         
TrigSignatureMoniMT                                INFO HLT_mu50_L1MU20 decisions                         0         0         0         0         0         
TrigSignatureMoniMT                                INFO HLT_mu60_0eta105_msonly_L1MU2010        10        0         0         0         0         0         0         
TrigSignatureMoniMT                                INFO HLT_mu60_0eta105_msonly_L1MU20 decisions                    0         0         0         0         0         
TrigSignatureMoniMT                                INFO HLT_mu6Comb_L1MU6             10        10        2         2         0         0         0         2         
TrigSignatureMoniMT                                INFO HLT_mu6Comb_L1MU6 decisions                       3         3         0         0         0         
TrigSignatureMoniMT                                INFO HLT_mu6_L1MU6                 10        10        2         2         1         1         0         1         
TrigSignatureMoniMT                                INFO HLT_mu6_L1MU6 decisions                           3         3         2         1         0         
TrigSignatureMoniMT                                INFO HLT_mu6_ivarmedium_L1MU6      10        10        2         2         1         1         1         1         
TrigSignatureMoniMT                                INFO HLT_mu6_ivarmedium_L1MU6 decisions                    3         3         2         1         1         
TrigSignatureMoniMT                                INFO HLT_mu6_msonly_L1MU6          10        10        2         0         1         0         0         1         
TrigSignatureMoniMT                                INFO HLT_mu6_msonly_L1MU6 decisions                    3         0         2         0         0         
TrigSignatureMoniMT                                INFO HLT_mu6_mu4_L12MU4            10        10        2         1         1         1         0         1         
TrigSignatureMoniMT                                INFO HLT_mu6_mu4_L12MU4 decisions                      8         6         6         4         0         
TrigSignatureMoniMT                                INFO HLT_mu6fast_L1MU6             10        10        2         0         0         0         0         2         
TrigSignatureMoniMT                                INFO HLT_mu6fast_L1MU6 decisions                       3         0         0         0         0         
TrigSignatureMoniMT                                INFO HLT_mu6noL1_L1MU6             10        10        3         0         0         0         0         0         
TrigSignatureMoniMT                                INFO HLT_mu6noL1_L1MU6 decisions                       4         0         0         0         0         
